; Engine configuration file.
; It's best edited using the editor UI and not directly,
; since the parameters that go here are not all obvious.
;
; Format:
;   [section] ; section goes between []
;   param=value ; assign values to parameters

config_version=4

[application]

config/name="SplashScreen"
run/main_scene="res://Scene/Root.tscn"
config/icon="res://icon.png"

[display]

window/size/width=2560
window/size/height=1440
window/size/fullscreen=true
window/stretch/mode="viewport"
window/stretch/aspect="keep"

[editor]

convert_text_resources_to_binary_on_export=true

[physics]

common/enable_pause_aware_picking=true

[rendering]

quality/driver/driver_name="GLES2"
vram_compression/import_etc=true
vram_compression/import_etc2=false
environment/default_environment="res://default_env.tres"
