[gd_scene load_steps=6 format=2]

[ext_resource path="res://Material/press/1-1.png" type="Texture" id=1]
[ext_resource path="res://Material/normal/1-1.png" type="Texture" id=2]
[ext_resource path="res://Scene/Btn1-1.gd" type="Script" id=3]
[ext_resource path="res://font/OpenSans100.tres" type="DynamicFont" id=4]
[ext_resource path="res://Scene/KeyText.gd" type="Script" id=5]

[node name="Btn1-1" type="TextureButton"]
margin_right = 14.0
margin_bottom = 14.0
toggle_mode = true
texture_normal = ExtResource( 2 )
texture_pressed = ExtResource( 1 )
script = ExtResource( 3 )

[node name="KeyText" type="Label" parent="."]
anchor_left = 0.5
anchor_top = 0.5
anchor_right = 0.5
anchor_bottom = 0.5
margin_left = -7.5
margin_top = -10.5
margin_right = 7.5
margin_bottom = 9.5
size_flags_horizontal = 0
size_flags_vertical = 0
custom_fonts/font = ExtResource( 4 )
text = "A"
align = 1
valign = 1
script = ExtResource( 5 )
