[gd_resource type="DynamicFont" load_steps=2 format=2]

[ext_resource path="res://bakso_sapi/BaksoSapi.otf" type="DynamicFontData" id=1]

[resource]
size = 34
outline_color = Color( 0.188235, 0.121569, 0.780392, 1 )
font_data = ExtResource( 1 )
