<?xml version="1.0" encoding="UTF-8" standalone="no"?>
<!-- Created with Inkscape (http://www.inkscape.org/) -->

<svg
   width="793.70081"
   height="1122.5197"
   viewBox="0 0 210 297"
   version="1.1"
   id="svg5"
   inkscape:version="1.1.1 (3bf5ae0d25, 2021-09-20)"
   sodipodi:docname="drawing.svg"
   xmlns:inkscape="http://www.inkscape.org/namespaces/inkscape"
   xmlns:sodipodi="http://sodipodi.sourceforge.net/DTD/sodipodi-0.dtd"
   xmlns:xlink="http://www.w3.org/1999/xlink"
   xmlns="http://www.w3.org/2000/svg"
   xmlns:svg="http://www.w3.org/2000/svg">
  <sodipodi:namedview
     id="namedview7"
     pagecolor="#ffffff"
     bordercolor="#666666"
     borderopacity="1.0"
     inkscape:pageshadow="2"
     inkscape:pageopacity="0.0"
     inkscape:pagecheckerboard="0"
     inkscape:document-units="mm"
     showgrid="false"
     units="px"
     inkscape:zoom="32"
     inkscape:cx="-324.03125"
     inkscape:cy="256.21875"
     inkscape:window-width="1920"
     inkscape:window-height="1003"
     inkscape:window-x="0"
     inkscape:window-y="0"
     inkscape:window-maximized="1"
     inkscape:current-layer="layer1" />
  <defs
     id="defs2">
    <linearGradient
       inkscape:collect="always"
       id="linearGradient23335">
      <stop
         style="stop-color:#d40000;stop-opacity:1;"
         offset="0"
         id="stop23331" />
      <stop
         style="stop-color:#d45500;stop-opacity:1"
         offset="0.07983752"
         id="stop23373" />
      <stop
         style="stop-color:#ff7f2a;stop-opacity:1"
         offset="0.46916208"
         id="stop23503" />
      <stop
         style="stop-color:#d40000;stop-opacity:0;"
         offset="1"
         id="stop23333" />
    </linearGradient>
    <linearGradient
       inkscape:collect="always"
       id="linearGradient2879">
      <stop
         style="stop-color:#000000;stop-opacity:1;"
         offset="0"
         id="stop2875" />
      <stop
         style="stop-color:#000000;stop-opacity:0;"
         offset="1"
         id="stop2877" />
    </linearGradient>
    <linearGradient
       inkscape:collect="always"
       xlink:href="#linearGradient2879"
       id="linearGradient2881"
       x1="-86.383095"
       y1="65.260712"
       x2="-86.265633"
       y2="73.820465"
       gradientUnits="userSpaceOnUse" />
    <linearGradient
       inkscape:collect="always"
       xlink:href="#linearGradient23335"
       id="linearGradient23337"
       x1="-86.45697"
       y1="65.281265"
       x2="-86.414246"
       y2="75.242508"
       gradientUnits="userSpaceOnUse" />
  </defs>
  <g
     inkscape:label="Layer 1"
     inkscape:groupmode="layer"
     id="layer1">
    <g
       id="g1937"
       style="fill:url(#linearGradient2881);fill-opacity:1"
       transform="matrix(0.26458333,0,0,0.26458333,-64.656126,47.975075)">
      <rect
         style="fill:url(#linearGradient23337);fill-opacity:1;fill-rule:evenodd;stroke-width:0.264583"
         id="rect31"
         width="3"
         height="8"
         x="-87.917679"
         y="65.235229"
         ry="1.5" />
    </g>
  </g>
</svg>
